<svg width="512" height="430" viewBox="0 0 512 430" fill="none" xmlns="http://www.w3.org/2000/svg">
<path d="M148.728 48.808H136.888V9H126.968V57H148.728V48.808ZM188.845 40.488C188.845 35.624 187.117 31.528 183.725 28.2C180.269 24.872 175.981 23.208 170.733 23.208C165.485 23.208 161.133 24.872 157.741 28.2C154.285 31.528 152.621 35.624 152.621 40.488C152.621 45.48 154.285 49.64 157.677 52.968C161.069 56.296 165.421 57.96 170.733 57.96C175.981 57.96 180.333 56.296 183.725 52.968C187.117 49.64 188.845 45.48 188.845 40.488ZM161.261 40.488C161.261 37.928 162.157 35.752 163.949 33.96C165.741 32.232 167.981 31.336 170.733 31.336C173.421 31.336 175.725 32.232 177.517 33.96C179.309 35.752 180.205 37.928 180.205 40.488C180.205 43.176 179.309 45.416 177.517 47.208C175.725 49 173.421 49.832 170.733 49.832C167.981 49.832 165.741 49 163.949 47.208C162.157 45.416 161.261 43.176 161.261 40.488ZM228.944 60.2V24.104H220.049V29.672C217.361 25.384 213.713 23.208 209.041 23.208C204.753 23.208 201.169 24.872 198.225 28.2C195.281 31.528 193.809 35.688 193.809 40.616C193.809 45.48 195.281 49.512 198.225 52.712C201.169 55.912 204.753 57.512 209.041 57.512C213.713 57.512 217.361 55.464 220.049 51.304V59.944C220.049 61.864 219.089 62.76 217.297 62.76H199.697V69.8H217.937C221.585 69.8 224.337 68.968 226.193 67.304C227.985 65.64 228.944 63.272 228.944 60.2ZM202.769 40.616C202.769 37.992 203.537 35.816 205.201 34.024C206.865 32.296 208.849 31.4 211.217 31.4C213.073 31.4 214.801 31.976 216.401 33C218.001 34.024 219.217 35.368 220.049 36.904V44.264C219.153 45.864 217.937 47.144 216.401 48.168C214.865 49.192 213.137 49.704 211.217 49.704C208.849 49.704 206.865 48.872 205.201 47.144C203.537 45.416 202.769 43.24 202.769 40.616ZM244.922 18.408V9H235.77V18.408H244.922ZM244.922 57V24.104H235.77V57H244.922ZM265.975 57C269.687 57 272.631 55.976 274.679 53.928C276.727 51.88 277.815 49.32 277.815 46.248C277.815 43.304 276.791 40.872 274.871 38.952C272.951 37.032 270.071 36.072 266.359 36.072H261.943C259.959 36.072 258.999 35.304 258.999 33.768C258.999 33.128 259.255 32.552 259.767 32.104C260.279 31.72 260.983 31.464 261.943 31.464H276.151V24.104H260.855C257.847 24.104 255.351 25 253.367 26.792C251.319 28.584 250.359 30.76 250.359 33.448C250.359 36.264 251.255 38.504 253.175 40.232C255.031 42.024 257.527 42.856 260.727 42.856H264.759C267.831 42.856 269.367 43.944 269.367 46.12C269.367 48.424 267.767 49.576 264.695 49.576H250.807V57H265.975ZM300.815 31.336V24.104H295.055V14.888H285.903V24.104H280.207V31.336H285.903V57H295.055V31.336H300.815ZM314.297 18.408V9H305.145V18.408H314.297ZM314.297 57V24.104H305.145V57H314.297ZM355.126 44.968H346.486C345.718 46.504 344.63 47.656 343.222 48.552C341.814 49.448 340.15 49.832 338.294 49.832C335.542 49.832 333.302 49 331.51 47.208C329.718 45.416 328.886 43.176 328.886 40.488C328.886 37.928 329.718 35.752 331.51 33.96C333.302 32.232 335.542 31.336 338.294 31.336C340.15 31.336 341.814 31.848 343.286 32.744C344.758 33.704 345.846 34.92 346.55 36.392H355.126C354.294 32.424 352.374 29.224 349.302 26.792C346.23 24.424 342.518 23.208 338.294 23.208C333.046 23.208 328.694 24.872 325.302 28.2C321.91 31.528 320.246 35.624 320.246 40.488C320.246 45.48 321.91 49.64 325.302 52.968C328.694 56.296 333.046 57.96 338.294 57.96C342.518 57.96 346.23 56.808 349.302 54.44C352.374 52.136 354.358 48.936 355.126 44.968ZM374.975 57C378.687 57 381.631 55.976 383.679 53.928C385.727 51.88 386.815 49.32 386.815 46.248C386.815 43.304 385.791 40.872 383.871 38.952C381.951 37.032 379.071 36.072 375.359 36.072H370.943C368.959 36.072 367.999 35.304 367.999 33.768C367.999 33.128 368.255 32.552 368.767 32.104C369.279 31.72 369.983 31.464 370.943 31.464H385.151V24.104H369.855C366.847 24.104 364.351 25 362.367 26.792C360.319 28.584 359.359 30.76 359.359 33.448C359.359 36.264 360.255 38.504 362.175 40.232C364.031 42.024 366.527 42.856 369.727 42.856H373.759C376.831 42.856 378.367 43.944 378.367 46.12C378.367 48.424 376.767 49.576 373.695 49.576H359.807V57H374.975Z" fill="black"/>
<path d="M19.616 364.104V349H17.216V364.328C17.216 366.44 16.64 368.104 15.52 369.32C14.4 370.568 12.832 371.176 10.848 371.176C8.832 371.176 7.264 370.568 6.144 369.32C5.024 368.104 4.48 366.44 4.48 364.328V349H2.08V364.104C2.08 367.016 2.848 369.32 4.448 370.984C6.016 372.648 8.16 373.48 10.848 373.48C13.536 373.48 15.648 372.648 17.248 370.984C18.816 369.32 19.616 367.016 19.616 364.104ZM29.6235 373C31.5435 373 33.0155 372.52 34.0395 371.528C35.0315 370.568 35.5435 369.32 35.5435 367.784C35.5435 366.376 35.0315 365.192 34.0395 364.264C33.0155 363.336 31.5755 362.856 29.6555 362.856H27.7995C26.9995 362.856 26.3915 362.696 25.9755 362.312C25.5595 361.96 25.3675 361.48 25.3675 360.904C25.3675 360.328 25.5595 359.848 25.9755 359.464C26.3915 359.112 26.9995 358.92 27.7995 358.92H34.7435V356.68H27.7035C26.2955 356.68 25.1435 357.096 24.2475 357.864C23.3515 358.664 22.9035 359.688 22.9035 360.904C22.9035 362.152 23.3515 363.176 24.2475 363.944C25.1435 364.712 26.2955 365.096 27.7035 365.096H29.5275C30.7755 365.096 31.6715 365.352 32.2475 365.864C32.7915 366.376 33.0795 366.984 33.0795 367.752C33.0795 368.648 32.7595 369.352 32.1835 369.928C31.5755 370.504 30.6795 370.76 29.4635 370.76H22.9675V373H29.6235ZM51.9895 373H54.4855V356.68H51.9895V359.208C50.4535 357.224 48.5335 356.232 46.1975 356.232C43.9255 356.232 41.9735 357.064 40.3735 358.728C38.7735 360.392 37.9735 362.44 37.9735 364.808C37.9735 367.24 38.7735 369.32 40.3735 370.984C41.9735 372.648 43.9255 373.48 46.1975 373.48C48.5335 373.48 50.4535 372.488 51.9895 370.44V373ZM40.5335 364.808C40.5335 363.016 41.0775 361.544 42.1655 360.36C43.2535 359.208 44.5975 358.6 46.1975 358.6C47.4135 358.6 48.5655 358.952 49.5895 359.592C50.6135 360.232 51.4135 361.096 51.9895 362.12V367.496C51.3815 368.584 50.5815 369.48 49.5575 370.12C48.5335 370.792 47.4135 371.112 46.1975 371.112C44.5975 371.112 43.2535 370.536 42.1655 369.32C41.0775 368.136 40.5335 366.632 40.5335 364.808ZM66.6433 358.6C68.0833 358.6 69.1713 359.048 69.9393 359.88C70.6753 360.712 71.0593 361.832 71.0593 363.176V373H73.5553V362.952C73.5553 360.968 72.9473 359.336 71.7633 358.088C70.5473 356.872 68.9473 356.232 66.8993 356.232C65.7793 356.232 64.6913 356.52 63.6673 357.032C62.6433 357.544 61.7793 358.248 61.0753 359.112V356.68H58.5793V373H61.0753V361.736C61.5873 360.904 62.3553 360.168 63.3473 359.528C64.3073 358.92 65.4273 358.6 66.6433 358.6ZM90.8958 373H93.3918V349H90.8958V359.208C89.3598 357.224 87.4398 356.232 85.1038 356.232C82.8318 356.232 80.8798 357.064 79.2798 358.728C77.6798 360.392 76.8798 362.44 76.8798 364.808C76.8798 367.24 77.6798 369.32 79.2798 370.984C80.8798 372.648 82.8318 373.48 85.1038 373.48C87.4398 373.48 89.3598 372.488 90.8958 370.44V373ZM79.4398 364.808C79.4398 363.016 79.9838 361.544 81.0718 360.36C82.1598 359.208 83.5038 358.6 85.1038 358.6C86.3198 358.6 87.4718 358.952 88.4958 359.592C89.5198 360.232 90.3198 361.096 90.8958 362.12V367.496C90.2878 368.584 89.4878 369.48 88.4638 370.12C87.4398 370.792 86.3198 371.112 85.1038 371.112C83.5038 371.112 82.1598 370.536 81.0718 369.32C79.9838 368.136 79.4398 366.632 79.4398 364.808ZM114.894 364.808C114.894 362.44 114.03 360.392 112.302 358.728C110.574 357.064 108.43 356.232 105.934 356.232C103.406 356.232 101.294 357.064 99.5655 358.728C97.8375 360.392 96.9735 362.44 96.9735 364.808C96.9735 367.24 97.8375 369.288 99.5655 370.952C101.294 372.648 103.406 373.48 105.934 373.48C108.462 373.48 110.574 372.648 112.302 370.952C114.03 369.288 114.894 367.24 114.894 364.808ZM99.5335 364.808C99.5335 363.08 100.141 361.608 101.358 360.392C102.574 359.208 104.078 358.6 105.934 358.6C107.758 358.6 109.294 359.208 110.51 360.392C111.726 361.608 112.333 363.08 112.333 364.808C112.333 366.6 111.726 368.104 110.51 369.32C109.294 370.536 107.758 371.112 105.934 371.112C104.078 371.112 102.574 370.536 101.358 369.32C100.141 368.104 99.5335 366.6 99.5335 364.808ZM133.165 358.92V356.68H129.709V352.072H127.213V356.68H123.789V358.92H127.213V373H129.709V358.92H133.165ZM151.076 367.848H148.58C148.132 368.872 147.396 369.672 146.404 370.248C145.412 370.824 144.356 371.112 143.268 371.112C141.54 371.112 140.132 370.6 139.044 369.512C137.924 368.424 137.316 366.984 137.22 365.192H151.396C151.396 362.664 150.628 360.552 149.092 358.824C147.556 357.096 145.604 356.232 143.204 356.232C140.9 356.232 138.884 357.064 137.22 358.696C135.556 360.36 134.724 362.344 134.724 364.712C134.724 367.272 135.524 369.352 137.156 371.016C138.756 372.68 140.804 373.48 143.268 373.48C144.996 373.48 146.596 373 148.068 372.008C149.54 371.048 150.532 369.64 151.076 367.848ZM143.204 358.6C144.644 358.6 145.828 359.016 146.756 359.784C147.652 360.552 148.26 361.64 148.548 363.016H137.411C137.732 361.672 138.436 360.584 139.46 359.784C140.484 359.016 141.732 358.6 143.204 358.6ZM171.435 367.848H168.779C168.331 368.872 167.595 369.672 166.635 370.248C165.675 370.824 164.555 371.112 163.307 371.112C161.451 371.112 159.947 370.536 158.763 369.32C157.547 368.104 156.971 366.6 156.971 364.808C156.971 363.08 157.547 361.608 158.763 360.392C159.947 359.208 161.451 358.6 163.307 358.6C164.523 358.6 165.643 358.92 166.635 359.496C167.595 360.104 168.331 360.904 168.779 361.896H171.435C170.859 360.168 169.835 358.792 168.363 357.768C166.891 356.744 165.195 356.232 163.307 356.232C160.811 356.232 158.699 357.064 156.971 358.728C155.243 360.392 154.411 362.44 154.411 364.808C154.411 367.24 155.243 369.288 156.971 370.952C158.699 372.648 160.811 373.48 163.307 373.48C165.163 373.48 166.859 373 168.363 371.976C169.867 370.952 170.891 369.576 171.435 367.848ZM182.893 358.6C184.333 358.6 185.421 359.048 186.189 359.88C186.925 360.712 187.309 361.832 187.309 363.176V373H189.805V362.952C189.805 360.968 189.197 359.336 188.013 358.088C186.797 356.872 185.197 356.232 183.149 356.232C182.029 356.232 180.941 356.52 179.917 357.032C178.893 357.544 178.029 358.248 177.325 359.112V356.68H174.829V373H177.325V361.736C177.837 360.904 178.605 360.168 179.597 359.528C180.557 358.92 181.677 358.6 182.893 358.6ZM211.05 364.808C211.05 362.44 210.186 360.392 208.458 358.728C206.73 357.064 204.586 356.232 202.09 356.232C199.562 356.232 197.45 357.064 195.722 358.728C193.994 360.392 193.13 362.44 193.13 364.808C193.13 367.24 193.994 369.288 195.722 370.952C197.45 372.648 199.562 373.48 202.09 373.48C204.618 373.48 206.73 372.648 208.458 370.952C210.186 369.288 211.05 367.24 211.05 364.808ZM195.69 364.808C195.69 363.08 196.298 361.608 197.514 360.392C198.73 359.208 200.234 358.6 202.09 358.6C203.914 358.6 205.45 359.208 206.666 360.392C207.882 361.608 208.49 363.08 208.49 364.808C208.49 366.6 207.882 368.104 206.666 369.32C205.45 370.536 203.914 371.112 202.09 371.112C200.234 371.112 198.73 370.536 197.514 369.32C196.298 368.104 195.69 366.6 195.69 364.808ZM217.266 373V349H214.77V373H217.266ZM238.894 364.808C238.894 362.44 238.03 360.392 236.302 358.728C234.574 357.064 232.43 356.232 229.934 356.232C227.406 356.232 225.294 357.064 223.566 358.728C221.838 360.392 220.974 362.44 220.974 364.808C220.974 367.24 221.838 369.288 223.566 370.952C225.294 372.648 227.406 373.48 229.934 373.48C232.462 373.48 234.574 372.648 236.302 370.952C238.03 369.288 238.894 367.24 238.894 364.808ZM223.534 364.808C223.534 363.08 224.141 361.608 225.358 360.392C226.574 359.208 228.078 358.6 229.934 358.6C231.758 358.6 233.294 359.208 234.51 360.392C235.726 361.608 236.333 363.08 236.333 364.808C236.333 366.6 235.726 368.104 234.51 369.32C233.294 370.536 231.758 371.112 229.934 371.112C228.078 371.112 226.574 370.536 225.358 369.32C224.141 368.104 223.534 366.6 223.534 364.808ZM258.486 375.56V356.68H255.99V359.272C254.454 357.256 252.534 356.232 250.198 356.232C247.926 356.232 245.974 357.096 244.374 358.76C242.774 360.424 241.974 362.472 241.974 364.904C241.974 367.304 242.774 369.32 244.374 370.984C245.974 372.648 247.926 373.48 250.198 373.48C252.534 373.48 254.454 372.488 255.99 370.504V375.432C255.99 376.584 255.414 377.16 254.294 377.16H244.661V379.4H254.134C255.542 379.4 256.63 379.08 257.366 378.376C258.102 377.672 258.486 376.744 258.486 375.56ZM244.534 364.904C244.534 363.112 245.078 361.608 246.166 360.392C247.254 359.208 248.598 358.6 250.198 358.6C251.414 358.6 252.534 358.952 253.558 359.592C254.582 360.264 255.382 361.128 255.99 362.216V367.592C255.414 368.648 254.614 369.512 253.59 370.152C252.566 370.792 251.414 371.112 250.198 371.112C248.598 371.112 247.254 370.536 246.166 369.352C245.078 368.2 244.534 366.696 244.534 364.904ZM265.203 353.16V349H262.707V353.16H265.203ZM265.203 373V356.68H262.707V373H265.203ZM282.927 373H285.423V356.68H282.927V359.208C281.391 357.224 279.471 356.232 277.135 356.232C274.863 356.232 272.911 357.064 271.311 358.728C269.711 360.392 268.911 362.44 268.911 364.808C268.911 367.24 269.711 369.32 271.311 370.984C272.911 372.648 274.863 373.48 277.135 373.48C279.471 373.48 281.391 372.488 282.927 370.44V373ZM271.471 364.808C271.471 363.016 272.015 361.544 273.103 360.36C274.191 359.208 275.535 358.6 277.135 358.6C278.351 358.6 279.503 358.952 280.527 359.592C281.551 360.232 282.351 361.096 282.927 362.12V367.496C282.319 368.584 281.519 369.48 280.495 370.12C279.471 370.792 278.351 371.112 277.135 371.112C275.535 371.112 274.191 370.536 273.103 369.32C272.015 368.136 271.471 366.632 271.471 364.808ZM299.172 373V349H296.676V373H299.172ZM306.016 373V349H303.52V373H306.016ZM326.076 367.848H323.58C323.132 368.872 322.396 369.672 321.404 370.248C320.412 370.824 319.356 371.112 318.268 371.112C316.54 371.112 315.132 370.6 314.044 369.512C312.924 368.424 312.316 366.984 312.22 365.192H326.396C326.396 362.664 325.628 360.552 324.092 358.824C322.556 357.096 320.604 356.232 318.204 356.232C315.9 356.232 313.884 357.064 312.22 358.696C310.556 360.36 309.724 362.344 309.724 364.712C309.724 367.272 310.524 369.352 312.156 371.016C313.756 372.68 315.804 373.48 318.268 373.48C319.996 373.48 321.596 373 323.068 372.008C324.54 371.048 325.532 369.64 326.076 367.848ZM318.204 358.6C319.644 358.6 320.828 359.016 321.756 359.784C322.652 360.552 323.26 361.64 323.548 363.016H312.411C312.732 361.672 313.436 360.584 314.46 359.784C315.484 359.016 316.732 358.6 318.204 358.6ZM345.923 375.56V356.68H343.427V359.272C341.891 357.256 339.971 356.232 337.635 356.232C335.363 356.232 333.411 357.096 331.811 358.76C330.211 360.424 329.411 362.472 329.411 364.904C329.411 367.304 330.211 369.32 331.811 370.984C333.411 372.648 335.363 373.48 337.635 373.48C339.971 373.48 341.891 372.488 343.427 370.504V375.432C343.427 376.584 342.851 377.16 341.731 377.16H332.099V379.4H341.571C342.979 379.4 344.067 379.08 344.803 378.376C345.539 377.672 345.923 376.744 345.923 375.56ZM331.971 364.904C331.971 363.112 332.515 361.608 333.603 360.392C334.691 359.208 336.035 358.6 337.635 358.6C338.851 358.6 339.971 358.952 340.995 359.592C342.019 360.264 342.819 361.128 343.427 362.216V367.592C342.851 368.648 342.051 369.512 341.027 370.152C340.003 370.792 338.851 371.112 337.635 371.112C336.035 371.112 334.691 370.536 333.603 369.352C332.515 368.2 331.971 366.696 331.971 364.904ZM363.521 373H366.017V356.68H363.521V359.208C361.985 357.224 360.065 356.232 357.729 356.232C355.457 356.232 353.505 357.064 351.905 358.728C350.305 360.392 349.505 362.44 349.505 364.808C349.505 367.24 350.305 369.32 351.905 370.984C353.505 372.648 355.457 373.48 357.729 373.48C360.065 373.48 361.985 372.488 363.521 370.44V373ZM352.065 364.808C352.065 363.016 352.609 361.544 353.697 360.36C354.785 359.208 356.129 358.6 357.729 358.6C358.945 358.6 360.097 358.952 361.121 359.592C362.145 360.232 362.945 361.096 363.521 362.12V367.496C362.913 368.584 362.113 369.48 361.089 370.12C360.065 370.792 358.945 371.112 357.729 371.112C356.129 371.112 354.785 370.536 353.697 369.32C352.609 368.136 352.065 366.632 352.065 364.808ZM378.143 358.6C379.551 358.6 380.639 359.048 381.407 359.88C382.143 360.744 382.527 361.832 382.527 363.176V373H385.023V362.952C385.023 362.504 384.991 362.024 384.927 361.576C385.471 360.776 386.207 360.072 387.167 359.496C388.127 358.92 389.183 358.6 390.367 358.6C391.775 358.6 392.863 359.048 393.631 359.88C394.367 360.744 394.751 361.832 394.751 363.176V373H397.247V362.952C397.247 360.968 396.639 359.336 395.455 358.088C394.239 356.872 392.639 356.232 390.623 356.232C389.343 356.232 388.159 356.552 387.007 357.16C385.855 357.768 384.958 358.568 384.255 359.528C383.103 357.352 381.151 356.232 378.399 356.232C377.279 356.232 376.223 356.488 375.199 357C374.175 357.512 373.311 358.216 372.607 359.08V356.68H370.111V373H372.607V361.736C373.119 360.904 373.887 360.168 374.847 359.528C375.807 358.92 376.927 358.6 378.143 358.6ZM418.487 364.808C418.487 362.44 417.623 360.392 415.895 358.728C414.167 357.064 412.023 356.232 409.527 356.232C406.999 356.232 404.887 357.064 403.159 358.728C401.431 360.392 400.567 362.44 400.567 364.808C400.567 367.24 401.431 369.288 403.159 370.952C404.887 372.648 406.999 373.48 409.527 373.48C412.055 373.48 414.167 372.648 415.895 370.952C417.623 369.288 418.487 367.24 418.487 364.808ZM403.127 364.808C403.127 363.08 403.735 361.608 404.951 360.392C406.167 359.208 407.671 358.6 409.527 358.6C411.351 358.6 412.887 359.208 414.103 360.392C415.319 361.608 415.927 363.08 415.927 364.808C415.927 366.6 415.319 368.104 414.103 369.32C412.887 370.536 411.351 371.112 409.527 371.112C407.671 371.112 406.167 370.536 404.951 369.32C403.735 368.104 403.127 366.6 403.127 364.808ZM427.967 373C429.887 373 431.359 372.52 432.383 371.528C433.375 370.568 433.887 369.32 433.887 367.784C433.887 366.376 433.375 365.192 432.383 364.264C431.359 363.336 429.919 362.856 427.999 362.856H426.143C425.343 362.856 424.735 362.696 424.319 362.312C423.903 361.96 423.711 361.48 423.711 360.904C423.711 360.328 423.903 359.848 424.319 359.464C424.735 359.112 425.343 358.92 426.143 358.92H433.087V356.68H426.047C424.639 356.68 423.487 357.096 422.591 357.864C421.695 358.664 421.247 359.688 421.247 360.904C421.247 362.152 421.695 363.176 422.591 363.944C423.487 364.712 424.639 365.096 426.047 365.096H427.871C429.119 365.096 430.015 365.352 430.591 365.864C431.135 366.376 431.423 366.984 431.423 367.752C431.423 368.648 431.103 369.352 430.527 369.928C429.919 370.504 429.023 370.76 427.807 370.76H421.311V373H427.967ZM457.365 373H459.861V356.68H457.365V359.208C455.829 357.224 453.909 356.232 451.573 356.232C449.301 356.232 447.349 357.064 445.749 358.728C444.149 360.392 443.349 362.44 443.349 364.808C443.349 367.24 444.149 369.32 445.749 370.984C447.349 372.648 449.301 373.48 451.573 373.48C453.909 373.48 455.829 372.488 457.365 370.44V373ZM445.909 364.808C445.909 363.016 446.453 361.544 447.541 360.36C448.629 359.208 449.973 358.6 451.573 358.6C452.789 358.6 453.941 358.952 454.965 359.592C455.989 360.232 456.789 361.096 457.365 362.12V367.496C456.757 368.584 455.957 369.48 454.933 370.12C453.909 370.792 452.789 371.112 451.573 371.112C449.973 371.112 448.629 370.536 447.541 369.32C446.453 368.136 445.909 366.632 445.909 364.808ZM466.578 373V349H464.082V373H466.578ZM10.336 412.48C12.576 412.48 14.528 411.648 16.128 409.984C17.728 408.32 18.56 406.304 18.56 403.904C18.56 401.472 17.728 399.424 16.128 397.76C14.528 396.096 12.576 395.232 10.336 395.232C7.968 395.232 6.048 396.256 4.544 398.272V395.68H2.048V418.4H4.544V409.504C6.048 411.488 7.968 412.48 10.336 412.48ZM10.336 397.6C11.904 397.6 13.248 398.208 14.336 399.392C15.424 400.608 16 402.112 16 403.904C16 405.696 15.424 407.2 14.336 408.352C13.248 409.536 11.904 410.112 10.336 410.112C9.088 410.112 7.936 409.792 6.912 409.152C5.888 408.512 5.088 407.648 4.544 406.592V401.216C5.12 400.128 5.952 399.264 6.976 398.592C8 397.952 9.12 397.6 10.336 397.6ZM34.2378 412H36.7338V395.68H34.2378V406.976C33.6938 407.84 32.9578 408.576 31.9978 409.184C31.0378 409.824 29.9498 410.112 28.7338 410.112C27.2938 410.112 26.2058 409.696 25.4698 408.864C24.7338 408.032 24.3818 406.912 24.3818 405.536V395.68H21.8858V405.76C21.8858 407.776 22.4618 409.408 23.6458 410.624C24.8298 411.872 26.4298 412.48 28.4778 412.48C29.5658 412.48 30.6218 412.224 31.6458 411.712C32.6698 411.2 33.5338 410.496 34.2378 409.632V412ZM48.8933 397.6C50.3333 397.6 51.4213 398.048 52.1893 398.88C52.9253 399.712 53.3093 400.832 53.3093 402.176V412H55.8053V401.952C55.8053 399.968 55.1973 398.336 54.0133 397.088C52.7973 395.872 51.1973 395.232 49.1493 395.232C48.0293 395.232 46.9413 395.52 45.9173 396.032C44.8933 396.544 44.0293 397.248 43.3253 398.112V395.68H40.8293V412H43.3253V400.736C43.8373 399.904 44.6053 399.168 45.5973 398.528C46.5573 397.92 47.6773 397.6 48.8933 397.6ZM67.2898 397.92V395.68H63.8338V391.072H61.3378V395.68H57.9138V397.92H61.3378V412H63.8338V397.92H67.2898ZM86.7685 403.808C86.7685 401.44 85.9045 399.392 84.1765 397.728C82.4485 396.064 80.3045 395.232 77.8085 395.232C75.2805 395.232 73.1685 396.064 71.4405 397.728C69.7125 399.392 68.8485 401.44 68.8485 403.808C68.8485 406.24 69.7125 408.288 71.4405 409.952C73.1685 411.648 75.2805 412.48 77.8085 412.48C80.3365 412.48 82.4485 411.648 84.1765 409.952C85.9045 408.288 86.7685 406.24 86.7685 403.808ZM71.4085 403.808C71.4085 402.08 72.0165 400.608 73.2325 399.392C74.4485 398.208 75.9525 397.6 77.8085 397.6C79.6325 397.6 81.1685 398.208 82.3845 399.392C83.6005 400.608 84.2085 402.08 84.2085 403.808C84.2085 405.6 83.6005 407.104 82.3845 408.32C81.1685 409.536 79.6325 410.112 77.8085 410.112C75.9525 410.112 74.4485 409.536 73.2325 408.32C72.0165 407.104 71.4085 405.6 71.4085 403.808ZM100.016 392.16V388H97.5198V392.16H100.016ZM100.016 412V395.68H97.5198V412H100.016ZM112.3 397.6C113.74 397.6 114.828 398.048 115.596 398.88C116.332 399.712 116.716 400.832 116.716 402.176V412H119.212V401.952C119.212 399.968 118.604 398.336 117.42 397.088C116.204 395.872 114.604 395.232 112.556 395.232C111.436 395.232 110.348 395.52 109.324 396.032C108.3 396.544 107.436 397.248 106.732 398.112V395.68H104.236V412H106.732V400.736C107.244 399.904 108.012 399.168 109.004 398.528C109.964 397.92 111.084 397.6 112.3 397.6ZM136.552 412H139.048V388H136.552V398.208C135.016 396.224 133.096 395.232 130.76 395.232C128.488 395.232 126.536 396.064 124.936 397.728C123.336 399.392 122.536 401.44 122.536 403.808C122.536 406.24 123.336 408.32 124.936 409.984C126.536 411.648 128.488 412.48 130.76 412.48C133.096 412.48 135.016 411.488 136.552 409.44V412ZM125.096 403.808C125.096 402.016 125.64 400.544 126.728 399.36C127.816 398.208 129.16 397.6 130.76 397.6C131.976 397.6 133.128 397.952 134.152 398.592C135.176 399.232 135.976 400.096 136.552 401.12V406.496C135.944 407.584 135.144 408.48 134.12 409.12C133.096 409.792 131.976 410.112 130.76 410.112C129.16 410.112 127.816 409.536 126.728 408.32C125.64 407.136 125.096 405.632 125.096 403.808ZM145.766 392.16V388H143.27V392.16H145.766ZM145.766 412V395.68H143.27V412H145.766ZM166.498 406.848H163.842C163.394 407.872 162.658 408.672 161.698 409.248C160.738 409.824 159.618 410.112 158.37 410.112C156.514 410.112 155.01 409.536 153.826 408.32C152.61 407.104 152.034 405.6 152.034 403.808C152.034 402.08 152.61 400.608 153.826 399.392C155.01 398.208 156.514 397.6 158.37 397.6C159.586 397.6 160.706 397.92 161.698 398.496C162.658 399.104 163.394 399.904 163.842 400.896H166.498C165.922 399.168 164.898 397.792 163.426 396.768C161.954 395.744 160.258 395.232 158.37 395.232C155.874 395.232 153.762 396.064 152.034 397.728C150.306 399.392 149.474 401.44 149.474 403.808C149.474 406.24 150.306 408.288 152.034 409.952C153.762 411.648 155.874 412.48 158.37 412.48C160.226 412.48 161.922 412 163.426 410.976C164.93 409.952 165.954 408.576 166.498 406.848ZM182.771 412H185.267V395.68H182.771V398.208C181.235 396.224 179.315 395.232 176.979 395.232C174.707 395.232 172.755 396.064 171.155 397.728C169.555 399.392 168.755 401.44 168.755 403.808C168.755 406.24 169.555 408.32 171.155 409.984C172.755 411.648 174.707 412.48 176.979 412.48C179.315 412.48 181.235 411.488 182.771 409.44V412ZM171.315 403.808C171.315 402.016 171.859 400.544 172.947 399.36C174.035 398.208 175.379 397.6 176.979 397.6C178.195 397.6 179.347 397.952 180.371 398.592C181.395 399.232 182.195 400.096 182.771 401.12V406.496C182.163 407.584 181.363 408.48 180.339 409.12C179.315 409.792 178.195 410.112 176.979 410.112C175.379 410.112 174.035 409.536 172.947 408.32C171.859 407.136 171.315 405.632 171.315 403.808ZM202.865 412H205.361V388H202.865V398.208C201.329 396.224 199.409 395.232 197.073 395.232C194.801 395.232 192.849 396.064 191.249 397.728C189.649 399.392 188.849 401.44 188.849 403.808C188.849 406.24 189.649 408.32 191.249 409.984C192.849 411.648 194.801 412.48 197.073 412.48C199.409 412.48 201.329 411.488 202.865 409.44V412ZM191.409 403.808C191.409 402.016 191.953 400.544 193.041 399.36C194.129 398.208 195.473 397.6 197.073 397.6C198.289 397.6 199.441 397.952 200.465 398.592C201.489 399.232 202.289 400.096 202.865 401.12V406.496C202.257 407.584 201.457 408.48 200.433 409.12C199.409 409.792 198.289 410.112 197.073 410.112C195.473 410.112 194.129 409.536 193.041 408.32C191.953 407.136 191.409 405.632 191.409 403.808ZM226.862 403.808C226.862 401.44 225.998 399.392 224.27 397.728C222.542 396.064 220.398 395.232 217.902 395.232C215.374 395.232 213.262 396.064 211.534 397.728C209.806 399.392 208.942 401.44 208.942 403.808C208.942 406.24 209.806 408.288 211.534 409.952C213.262 411.648 215.374 412.48 217.902 412.48C220.43 412.48 222.542 411.648 224.27 409.952C225.998 408.288 226.862 406.24 226.862 403.808ZM211.502 403.808C211.502 402.08 212.11 400.608 213.326 399.392C214.542 398.208 216.046 397.6 217.902 397.6C219.726 397.6 221.262 398.208 222.478 399.392C223.694 400.608 224.302 402.08 224.302 403.808C224.302 405.6 223.694 407.104 222.478 408.32C221.262 409.536 219.726 410.112 217.902 410.112C216.046 410.112 214.542 409.536 213.326 408.32C212.11 407.104 211.502 405.6 211.502 403.808ZM250.99 412H253.486V388H250.99V398.208C249.454 396.224 247.534 395.232 245.198 395.232C242.926 395.232 240.974 396.064 239.374 397.728C237.774 399.392 236.974 401.44 236.974 403.808C236.974 406.24 237.774 408.32 239.374 409.984C240.974 411.648 242.926 412.48 245.198 412.48C247.534 412.48 249.454 411.488 250.99 409.44V412ZM239.534 403.808C239.534 402.016 240.078 400.544 241.166 399.36C242.254 398.208 243.598 397.6 245.198 397.6C246.414 397.6 247.566 397.952 248.59 398.592C249.614 399.232 250.414 400.096 250.99 401.12V406.496C250.382 407.584 249.582 408.48 248.558 409.12C247.534 409.792 246.414 410.112 245.198 410.112C243.598 410.112 242.254 409.536 241.166 408.32C240.078 407.136 239.534 405.632 239.534 403.808ZM273.419 406.848H270.923C270.475 407.872 269.739 408.672 268.747 409.248C267.755 409.824 266.699 410.112 265.611 410.112C263.883 410.112 262.475 409.6 261.387 408.512C260.267 407.424 259.659 405.984 259.563 404.192H273.739C273.739 401.664 272.971 399.552 271.435 397.824C269.899 396.096 267.947 395.232 265.547 395.232C263.243 395.232 261.227 396.064 259.563 397.696C257.899 399.36 257.067 401.344 257.067 403.712C257.067 406.272 257.867 408.352 259.499 410.016C261.099 411.68 263.147 412.48 265.611 412.48C267.339 412.48 268.939 412 270.411 411.008C271.883 410.048 272.875 408.64 273.419 406.848ZM265.547 397.6C266.987 397.6 268.171 398.016 269.099 398.784C269.995 399.552 270.603 400.64 270.891 402.016H259.755C260.075 400.672 260.779 399.584 261.803 398.784C262.827 398.016 264.075 397.6 265.547 397.6ZM292.33 397.6C293.738 397.6 294.826 398.048 295.594 398.88C296.33 399.744 296.714 400.832 296.714 402.176V412H299.21V401.952C299.21 401.504 299.178 401.024 299.114 400.576C299.658 399.776 300.394 399.072 301.354 398.496C302.314 397.92 303.37 397.6 304.554 397.6C305.962 397.6 307.05 398.048 307.818 398.88C308.554 399.744 308.938 400.832 308.938 402.176V412H311.434V401.952C311.434 399.968 310.826 398.336 309.642 397.088C308.426 395.872 306.826 395.232 304.81 395.232C303.53 395.232 302.346 395.552 301.194 396.16C300.042 396.768 299.146 397.568 298.442 398.528C297.29 396.352 295.338 395.232 292.586 395.232C291.466 395.232 290.41 395.488 289.386 396C288.362 396.512 287.498 397.216 286.794 398.08V395.68H284.298V412H286.794V400.736C287.306 399.904 288.074 399.168 289.034 398.528C289.994 397.92 291.114 397.6 292.33 397.6ZM328.771 412H331.267V395.68H328.771V398.208C327.235 396.224 325.315 395.232 322.979 395.232C320.707 395.232 318.755 396.064 317.155 397.728C315.555 399.392 314.755 401.44 314.755 403.808C314.755 406.24 315.555 408.32 317.155 409.984C318.755 411.648 320.707 412.48 322.979 412.48C325.315 412.48 327.235 411.488 328.771 409.44V412ZM317.315 403.808C317.315 402.016 317.859 400.544 318.947 399.36C320.035 398.208 321.379 397.6 322.979 397.6C324.195 397.6 325.347 397.952 326.371 398.592C327.395 399.232 328.195 400.096 328.771 401.12V406.496C328.163 407.584 327.363 408.48 326.339 409.12C325.315 409.792 324.195 410.112 322.979 410.112C321.379 410.112 320.035 409.536 318.947 408.32C317.859 407.136 317.315 405.632 317.315 403.808ZM343.425 397.6C344.865 397.6 345.953 398.048 346.721 398.88C347.457 399.712 347.841 400.832 347.841 402.176V412H350.337V401.952C350.337 399.968 349.729 398.336 348.545 397.088C347.329 395.872 345.729 395.232 343.681 395.232C342.561 395.232 341.473 395.52 340.449 396.032C339.425 396.544 338.561 397.248 337.857 398.112V395.68H335.361V412H337.857V400.736C338.369 399.904 339.137 399.168 340.129 398.528C341.089 397.92 342.209 397.6 343.425 397.6ZM370.013 406.848H367.517C367.069 407.872 366.333 408.672 365.341 409.248C364.349 409.824 363.293 410.112 362.205 410.112C360.477 410.112 359.069 409.6 357.981 408.512C356.861 407.424 356.253 405.984 356.157 404.192H370.333C370.333 401.664 369.565 399.552 368.029 397.824C366.493 396.096 364.541 395.232 362.141 395.232C359.837 395.232 357.821 396.064 356.157 397.696C354.493 399.36 353.661 401.344 353.661 403.712C353.661 406.272 354.461 408.352 356.093 410.016C357.693 411.68 359.741 412.48 362.205 412.48C363.933 412.48 365.533 412 367.005 411.008C368.477 410.048 369.469 408.64 370.013 406.848ZM362.141 397.6C363.581 397.6 364.765 398.016 365.693 398.784C366.589 399.552 367.197 400.64 367.485 402.016H356.349C356.669 400.672 357.373 399.584 358.397 398.784C359.421 398.016 360.669 397.6 362.141 397.6ZM382.021 397.92V395.232C379.845 395.232 377.957 396 376.357 397.504V395.68H373.861V412H376.357V400.48C376.869 399.776 377.605 399.2 378.597 398.688C379.557 398.176 380.709 397.92 382.021 397.92ZM396.802 412H399.298V395.68H396.802V398.208C395.266 396.224 393.346 395.232 391.01 395.232C388.738 395.232 386.786 396.064 385.186 397.728C383.586 399.392 382.786 401.44 382.786 403.808C382.786 406.24 383.586 408.32 385.186 409.984C386.786 411.648 388.738 412.48 391.01 412.48C393.346 412.48 395.266 411.488 396.802 409.44V412ZM385.346 403.808C385.346 402.016 385.89 400.544 386.978 399.36C388.066 398.208 389.41 397.6 391.01 397.6C392.226 397.6 393.378 397.952 394.402 398.592C395.426 399.232 396.226 400.096 396.802 401.12V406.496C396.194 407.584 395.394 408.48 394.37 409.12C393.346 409.792 392.226 410.112 391.01 410.112C389.41 410.112 388.066 409.536 386.978 408.32C385.89 407.136 385.346 405.632 385.346 403.808ZM418.679 412L422.999 395.68H420.407L416.727 409.76H415.287L411.607 395.68H409.015L413.335 412H418.679ZM440.888 406.848H438.392C437.944 407.872 437.208 408.672 436.216 409.248C435.224 409.824 434.168 410.112 433.08 410.112C431.352 410.112 429.944 409.6 428.856 408.512C427.736 407.424 427.128 405.984 427.032 404.192H441.208C441.208 401.664 440.44 399.552 438.904 397.824C437.368 396.096 435.416 395.232 433.016 395.232C430.712 395.232 428.696 396.064 427.032 397.696C425.368 399.36 424.536 401.344 424.536 403.712C424.536 406.272 425.336 408.352 426.968 410.016C428.568 411.68 430.616 412.48 433.08 412.48C434.808 412.48 436.408 412 437.88 411.008C439.352 410.048 440.344 408.64 440.888 406.848ZM433.016 397.6C434.456 397.6 435.64 398.016 436.568 398.784C437.464 399.552 438.072 400.64 438.36 402.016H427.224C427.544 400.672 428.248 399.584 429.272 398.784C430.296 398.016 431.544 397.6 433.016 397.6ZM447.36 412V388H444.864V412H447.36ZM468.987 403.808C468.987 401.44 468.123 399.392 466.395 397.728C464.667 396.064 462.523 395.232 460.027 395.232C457.499 395.232 455.387 396.064 453.659 397.728C451.931 399.392 451.067 401.44 451.067 403.808C451.067 406.24 451.931 408.288 453.659 409.952C455.387 411.648 457.499 412.48 460.027 412.48C462.555 412.48 464.667 411.648 466.395 409.952C468.123 408.288 468.987 406.24 468.987 403.808ZM453.627 403.808C453.627 402.08 454.235 400.608 455.451 399.392C456.667 398.208 458.171 397.6 460.027 397.6C461.851 397.6 463.387 398.208 464.603 399.392C465.819 400.608 466.427 402.08 466.427 403.808C466.427 405.6 465.819 407.104 464.603 408.32C463.387 409.536 461.851 410.112 460.027 410.112C458.171 410.112 456.667 409.536 455.451 408.32C454.235 407.104 453.627 405.6 453.627 403.808ZM483.883 412V409.76H474.251V408.928L483.531 399.136V395.68H471.787V397.92H480.875V398.72L471.435 408.672V412H483.883Z" fill="black"/>
<path d="M203.357 173.925C202.926 206.839 203.57 288.735 209.513 313C239.552 294.822 305.701 251.433 329.99 223.295C347.561 196.707 342.048 170.484 337.096 160.696C330.636 139.399 303.246 101.194 245.366 118.747L241.49 118.235M187.55 138.108L152.989 134.117M152.989 134.117L131.672 131.654L111 101L241.49 118.235M152.989 134.117L167.524 156.178L194.817 160.05M222.11 163.922L194.817 160.05M194.817 160.05L209.513 183.928L227.439 186.671M253.44 141.012L263.776 156.178C271.27 152.564 281.11 154.672 285.094 156.178C303.44 164.697 302.213 183.821 299.306 192.318C297.045 197.911 288.711 209.226 273.466 209.743C258.221 210.259 248.38 196.405 245.366 189.414L227.439 186.671M253.44 141.012C263.238 136.387 287.226 131.332 304.797 148.111C322.367 164.89 319.87 188.446 316.424 198.126C314.163 202.751 308.285 212.905 302.859 216.519C296.076 221.036 291.877 224.909 271.205 226.522C250.533 228.135 230.831 205.871 227.439 186.671M253.44 141.012L241.49 118.235" stroke="black" stroke-width="3" stroke-linecap="round" stroke-linejoin="bevel"/>
</svg>
